{
    "Tipo": "Pagamento",
    "DataMovimento": "2019-09-18T09:17:36.82",
    "HoraMovimento": "18/09/2019 09:17:36",
    "Cartao": "532628******4738",
    "Valor": 72.25,
    "Parcelas": 1,
    "Bandeira": "MASTERCARD",
    "StatusPrePagamento": "Pagamento Confirmado"
}
