{
    "Contrato": 17275285,
    "LojaRetirada": "SAOP",
    "LojaRetiradaDescricao": "PAULISTA",
    "LojaRetiradaObservacao": "Observação retirada",
    "LojaRetiradaCidade": "SÃO PAULO",
    "LojaRetiradaUF": "SP",
    "LojaRetiradaGeolocalizacao": "-23.567845,-46.646531",
    "PatioRetiradaGeolocalizacao": "0,0",
    "RetiradaMetrosRaioAceitavel": 100,
    "LojaDevolucao": "SAOP",
    "LojaDevolucaoDescricao": "PAULISTA",
    "LojaDevolucaoCidade": "SÃO PAULO",
    "LojaDevolucaoUF": "SP",
    "LojaDevolucaoGeolocalizacao": "-23.567845,-46.646531",
    "PatioDevolucaoGeolocalizacao": "0,0",
    "DevolucaoMetrosRaioAceitavel": 100,
    "DataRetirada": "2019-09-18T00:00:00",
    "DataDevolucao": "2019-09-19T00:00:00",
    "HoraRetirada": "18:45",
    "HoraDevolucao": "09:45",
    "KmRetirada": 0,
    "KmDevolucao": 0,
    "CombustivelRetirada": 0,
    "CombustivelDevolucao": 0,
    "Locatario": "31662308825",
    "LocatarioNome": "ANDERSON SIMOES VIEIRA",
    "Preposto": "",
    "Faturado": "31662308825",
    "FaturadoNome": "ANDERSON SIMOES VIEIRA",
    "Desconto": 69.95,
    "Status": "Cadastrado",
    "Reserva": 16537798,
    "Tarifa": 147905,
    "Acordo": 0,
    "AcordoDig": 0,
    "CanalVenda": 380,
    "Fatura": 0,
    "NotaDebito": 0,
    "Grupo": "AM ",
    "GrupoDescricao": "HATCH ECONOMICO 1.0",
    "GrupoVeiculos": "Renault Kwid, Fiat Mobi",
    "Motorizacao": "",
    "PossuiDelivery": false,
    "QRCode": "17275285|16537798|31662308825    ",
    "PgtoPendente": false,
    "Veiculo": {
        "Placa": "",
        "Modelo": "208",
        "TipoModelo": "1.5",
        "Cor": "",
        "AnoFabricacao": 0,
        "anoFabricacaoModelo": 0,
        "DataCompra": "0001-01-01T00:00:00",
        "Fabricante": "PEUGEOT DO BRASIL",
        "CombustivelAtual": 0,
        "KmAtual": 0,
        "Negocio": "Fleet",
        "Grupo": "E",
        "GrupoDescricao": "HATCH MÉDIO 1.4",
        "Exemplo": "Ford Novo Ka, Citroen Novo C3 ou similares\r\n",
        "TipoCambio": "Automático",
        "Motor": "",
        "Bagagem": "3",
        "Vip": "N",
        "fipeCodigo": 0
    },
    "ListaProtecoes": [
        {
            "Descricao": "PROTEÇÃO PARCIAL                                                                                    ",
            "Valor": 25,
            "Observacao": "Inclui a proteção do veículo locado para Furto, Roubo e Acidentes. Pague um pequeno valor diário e garanta uma franquia/participação adequada em caso de sinistro com o veículo locado."
        }
    ],
    "ListaServicos": [],
    "ListaAdicionais": [],
    "ListaPagamentos": [
        {
            "Tipo": "Pre-Autorização",
            "DataMovimento": "2019-09-18T09:17:57.1",
            "HoraMovimento": "18/09/2019 09:17:57",
            "Cartao": "532628******4738",
            "Valor": 1000,
            "Parcelas": 1,
            "Bandeira": "MASTERCARD",
            "StatusPrePagamento": "Pagamento Confirmado"
        },
        {
            "Tipo": "Pagamento",
            "DataMovimento": "2019-09-18T09:17:36.82",
            "HoraMovimento": "18/09/2019 09:17:36",
            "Cartao": "532628******4738",
            "Valor": 72.25,
            "Parcelas": 1,
            "Bandeira": "MASTERCARD",
            "StatusPrePagamento": "Pagamento Confirmado"
        }
    ]
}
