{
  "CodigoTipoLoja": 2,
  "DescricaoTipoLoja": "LOJA DE RUA",
  "CodigoLoja": "BJL1",
  "CodigoFranqueado": 308,
  "DescricaoLoja": "BOM JESUS DA LAPA",
  "NomeLoja": "ATHOS TEIXEIRA PORTES EIRELI ME",
  "TelefoneLoja": "7734811225",
  "CodigoIata": "",
  "CodigoIcao": "",
  "ReferenciaLoja": "AO LADO DO SHOP CAR (AUTO PEÇAS)",
  "Observacao": "PONTO DE REFERÊNCIA: EM FRENTE AABB E AO LADO DA LOJA ROMANOS E SHOP CAR.",
  "Lojdevexp": "S",
  "Endereco": "AV MANOEL NOVAES 2066 - A",
  "Bairro": "LAGOA GRANDE",
  "MunicipioAbr": "BJL",
  "Municipio": "BOM JESUS DA LAPA",
  "Cep": "47600000",
  "Uf": "BA",
  "Estado": "BAHIA",
  "Geolocalizacao": "-13.265448, -43.410589",
  "PatioGeolocalizacao": "0,0",
  "MetrosRaioAceitavel": 100,
  "Distancia": 0.0,
  "TaxaServico": 12.00,
  "FusoHorario": 0,
  "AbreSemana1": "08:00",
  "FechaSemana1": "12:00",
  "AbreSemana2": "14:00",
  "FechaSemana2": "18:00",
  "AbreSemana3": "",
  "FechaSemana3": "",
  "AbreSemana4": "",
  "FechaSemana4": "",
  "AbreSabado1": "",
  "FechaSabado1": "",
  "AbreSabado2": "",
  "FechaSabado2": "",
  "AbreSabado3": "",
  "FechaSabado3": "",
  "AbreSabado4": "",
  "FechaSabado4": "",
  "AbreDomingo1": "",
  "FechaDomingo1": "",
  "AbreDomingo2": "",
  "FechaDomingo2": "",
  "AbreDomingo3": "",
  "FechaDomingo3": "",
  "AbreDomingo4": "",
  "FechaDomingo4": "",
  "AbreFeriadoDefault": "",
  "FechaFeriadoDefault": "",
  "AbreFeriado2": "",
  "FechaFeriado2": "",
  "AbreFeriado3": "",
  "FechaFeriado3": "",
  "AbreFeriado4": "",
  "FechaFeriado4": "",
  "Feriado": [
    {
      "Data": "2020-02-25T00:00:00",
      "Descricao": "CARNAVAL",
      "CodigoLoja": "BJL1"
    },
    {
      "Data": "2020-04-10T00:00:00",
      "Descricao": "PAIXAO DE CRISTO",
      "CodigoLoja": "BJL1"
    },
    {
      "Data": "2020-04-21T00:00:00",
      "Descricao": "TIRADENTES",
      "CodigoLoja": "BJL1"
    },
    {
      "Data": "2020-05-01T00:00:00",
      "Descricao": "DIA DO TRABALHO",
      "CodigoLoja": "BJL1"
    },
    {
      "Data": "2020-06-11T00:00:00",
      "Descricao": "CORPUS CHRISTI/Dia do Evangelho",
      "CodigoLoja": "BJL1"
    },
    {
      "Data": "2020-07-02T00:00:00",
      "Descricao": "Independência da Bahia",
      "CodigoLoja": "BJL1"
    },
    {
      "Data": "2020-09-07T00:00:00",
      "Descricao": "INDEPENDENCIA DO BRASIL",
      "CodigoLoja": "BJL1"
    },
    {
      "Data": "2020-10-12T00:00:00",
      "Descricao": "NOSSA SENHORA APARECIDA",
      "CodigoLoja": "BJL1"
    },
    {
      "Data": "2020-11-02T00:00:00",
      "Descricao": "FINADOS",
      "CodigoLoja": "BJL1"
    },
    {
      "Data": "2020-11-15T00:00:00",
      "Descricao": "PROCLAMACAO DA REPUBLICA",
      "CodigoLoja": "BJL1"
    },
    {
      "Data": "2020-12-25T00:00:00",
      "Descricao": "NATAL",
      "CodigoLoja": "BJL1"
    }
  ],
  "DataEspecial": [],
  "Contato": "ATHOS PORTES                            ",
  "Tel1": "            ",
  "Tel2": "            ",
  "Tel3": "            ",
  "LojCel": "77999089553 ",
  "Fax": "            ",
  "TelEmergencia": "77999089553 ",
  "LojEmail": "bjloperacional@unidas.com.br                      ",
  "LojObs": "Ponto de Referência: Em frente AABB e ao lado da loja Romanos e Shop CAR.",
  "Loj24h": false
}
