{
    "CoverageType": "30",
    "Details":
    [{
        "CoverageTextType": "Supplement",
        "text": "PROTEÇÃO PARCIAL"
    },
    {
        "CoverageTextType": "Description",
        "text": "Inclui a proteção do veículo locado para Furto, Roubo e Acidentes. Pague um pequeno valor diário e garanta uma franquia/participação adequada em caso de sinistro com o veículo locado."
    }],
    "Amount": 0,
    "UnitCharge": 0,
    "UnitChargePer": 0,
    "Quantity": 2
}
