{
    "ContaClienteid": 53084,
    "ContaClienteTipoid": 0,
    "FlgAreaLogada": false,
    "ContaClienteInclusao": "2019-09-18T09:00:49.403",
    "ContaStatusid": 3,
    "ContaStatusDescricao": "Conta Validada",
    "ContaClienteTipoDescricao": "Pessoa Física c/CPF Brasileiro",
    "CLIDOC": "99999999999",
    "ContaClienteNome": "Nome do Usuário",
    "ContaClienteNomeMae": "Nome da Mãe do Usuário",
    "ContaClienteNascimento": "01/01/1980 00:00:00",
    "ContaClienteTelResDDD": "0",
    "ContaClienteTelRes": "0",
    "ContaAutenticacaoMetodoid": 1,
    "ContaAutenticacaoInclusao": "2019-09-18T09:00:49.773",
    "ContaClienteAutenticacaoChave": "E2BH3sRCw1aYwhL16cHJjA==",
    "ContaClienteAutenticacaoValidade": "2019-09-18T09:00:49.773",
    "ContaClienteLoginEmailid": 53295,
    "ContaClienteLoginEmail": "TESTE@UNIDAS.COM.BR",
    "ContaClienteLoginEmailInclusao": "2019-09-18T09:00:49.46",
    "ContaClienteLoginEmailAtivo": 1,
    "ContaClienteLoginCelularid": 53614,
    "ContaClienteLoginCelularDDD": "11",
    "ContaClienteLoginCelular": "999999999",
    "ContaClienteLoginCelularDeviceID": "appRac",
    "ContaClienteLoginCelularInclusao": "2019-09-18T09:00:49.48",
    "ContaClienteLoginCelularValidacao": "2019-09-18T09:01:49.48",
    "ContaClienteLoginCelularAtivo": 1,
    "ContaClienteEnderecoResidencialPais": "BRA",
    "ContaClienteEnderecoResidencialCEP": "01418000",
    "ContaClienteEnderecoResidencialLogradouro": "ALAMEDA SANTOS",
    "ContaClienteEnderecoResidencialLogradouroNumero": "438",
    "ContaClienteEnderecoResidencialBairro": "VILA MARIANA",
    "ContaClienteEnderecoResidencialCidade": "558672",
    "ContaClienteEnderecoResidencialUF": "SP",
    "ContaClienteToken": "eyJhbGciOiJIUzI1NiIsInR5cCI6IkpXVCJ9.eyJ1bmlxdWVfbmFtZSI6IjMxNjYyMzA4ODI1IiwibmJmIjoxNTY4ODkyNTUzLCJleHAiOjE1Njk0OTczNTMsImlhdCI6MTU2ODg5MjU1MywiaXNzIjoiVW5pZGFzLk1vZGVscy5NYXBwZXIuVXJsIiwiYXVkIjoiVW5pZGFzLk1vZGVscy5NYXBwZXIuVXJsIn0.FospawkywsgfOf3hsl23DdmpS4oRIibOnlTMBYk9eQM",
    "ContaClienteFidelidade": 1,
    "ContaClienteFidelidadeCategoria": "Unidas Sempre",
    "EmailConfirmado": false,
    "ContaClienteLoginEmailMascarado": "TES************@UNIDAS.COM.BR",
    "ContaClienteLoginCelularMascarado": "1199**99**"
}
