{
  "type": "service_account",
  "project_id": "app-unidas-92ae2",
  "private_key_id": "49ccb5cc821e79cc480d73ab65559eb4a0a3601a",
  "private_key": "-----BEGIN PRIVATE KEY-----\nMIIEvQIBADANBgkqhkiG9w0BAQEFAASCBKcwggSjAgEAAoIBAQCqT8BDZoiE9Hj4\nX1qJwOfxo1caqUaUl2TPsz4wearO0fOj4sD6EC+0eufxPkMSVDlKEzKRepAJBCL0\nYUQvcJeoPdnjcbBz7mmF7VWh8KzR1KfBJS9Jeze45biASJPi3dWremhp7BTDdKiq\ndPd7KO47R/ppy8Gz7u6XiDy+1rvFMRkq3qk0jjpqwUXmm7v8DUb9rIHvMmJrOkse\nxsUzs97g0l6lqdnlhbGIWP8Yfx0fcLy0DDYuWw1a97SIE3h3TrWPuCDDs5xPNxLC\nKtlUfH4mEEOOp/joufoexDo3zq0CZT72uFr6kJT8VhMXuVxgToVzRk+9CeC1tYuG\nUniW4AqtAgMBAAECggEAHykTyZEtObw8FN9nYoxVs6eZxIJDrGStuHW4U2izWH9f\n5zSR776957TUEpa8cVJRIA02o5jr2QZ1ecaBEff0+36DiuJucSumCW+0yvoMuKCC\np+tMhVKCzbTUJr6AtlG1qhftmjGsU92YjYV0kUdaHSUMe0ZhNLFq3HU7/gOuW8PV\nQbBC6EQ8fbORLA0Qu5bC/poyFU2DAwpvqcE5drn+D2wYggHo43mlXl83H8SoYnxW\nXgd7TKtAFe2JHuaiRThnZj8RBp/PMwHC2xKB19P2BFEJxqtgaQczgh9C/f1Dx8xy\nAKRO4htAs2ognaWUNftcrSNmCfLEyvdAfW9tOuNmOQKBgQDWtq4E90ScV6pIA/yj\n9lTjMJi4ZE0D/s5t01CrQ07pi6PNu5PghaJgNdumBXZNT0vxwptmr5GV5WU8/bx5\n9o1PMIAZb0qaj+W5iSQVcski8yYRW9h3qII9VjKPni5Z6rnDLgy6f6NNLVEyywJM\nR8s9u59F87D/BrRMl24rxtvS6QKBgQDLD17d/XAdx5iAlK8vfj7LsStHXLxWqAqv\nvwpzdbKz6zbXMhm2adS1AmTkUA0rULD//VHYqAy6o05e6i3Ohxpygu1XXFWf/vOg\nOZxzSin6n12BG7OVPzj689bacekBEg+LJ2MxHF7/umuQC5gU/+O9jrvowZ4KAMYL\nNvL5eOa3JQKBgQCRp3dBcyQeEvI2zE2URMStIghX/eKo9S/AHPu6UnyzvcCvDbJx\nOvY94gtRAp+QLlzMckHNVQij8OvOhipXakPOFo6vsmmflEI4rKnHywhbJysJ145v\nDebcCR9fgeTbpnnBx/lmgrOa5UUR+dljOcjL5f1UDM5jEn84/fkExW/WEQKBgHTd\nlcXBVMNu2jA2YlS9Hbrxbm0VzDc7Y1seYg9tT7oIx3k2lmHLquW6SQK1p76kJBpQ\nWsiMfzbzQemScWaJjwkUnTBILed1PhWa0pXvuxVInvHtVX+x8UNNDvyNzoIVOOjn\ndEkRgQNA8SLn6VE8rH+uJCujMyeiplhR+ajmkjIZAoGAYRBWjLhBr5kMaOYHh5NW\n911jepb0iibMiwHvLg4CVK5QO5xM9fBcS59+wAKJ3OFOW0VZTNZ5ESBkiOpr07QN\njWeiCR6I5CuFlZP0dfnFnu4nLiEJdTIbXz54aqzmNTecnq4/whtkCTpauI2ERmeo\nNeNYyu8IDs5HMOy+xOkS/fM=\n-----END PRIVATE KEY-----\n",
  "client_email": "firebase-adminsdk-ulybk@app-unidas-92ae2.iam.gserviceaccount.com",
  "client_id": "114304253023517750800",
  "auth_uri": "https://accounts.google.com/o/oauth2/auth",
  "token_uri": "https://oauth2.googleapis.com/token",
  "auth_provider_x509_cert_url": "https://www.googleapis.com/oauth2/v1/certs",
  "client_x509_cert_url": "https://www.googleapis.com/robot/v1/metadata/x509/firebase-adminsdk-ulybk%40app-unidas-92ae2.iam.gserviceaccount.com"
}
